<svg xmlns="http://www.w3.org/2000/svg" width="20.097" height="40.191" viewBox="0 0 20.097 40.191">
  <defs>
    <style>
      .cls-1 {
        fill: #fff;
      }
    </style>
  </defs>
  <path id="logo" class="cls-1" d="M22.615,6.673h3.669V.283A47.379,47.379,0,0,0,20.939,0c-5.29,0-8.914,3.328-8.914,9.443v5.628H6.187v7.144h5.838V40.191h7.157V22.218h5.6l.889-7.144H19.181V10.152c0-2.065.558-3.478,3.435-3.478Z" transform="translate(-6.187)"/>
</svg>
