<svg xmlns="http://www.w3.org/2000/svg" width="36.666" height="36.673" viewBox="0 0 36.666 36.673">
  <defs>
    <style>
      .cls-1 {
        fill: #fff9f6;
      }
    </style>
  </defs>
  <g id="brands-and-logotypes" transform="translate(-0.449)">
    <path id="Path_231" data-name="Path 231" class="cls-1" d="M37.021,10.782a13.4,13.4,0,0,0-.852-4.449A9.394,9.394,0,0,0,30.8.967,13.435,13.435,0,0,0,26.354.115C24.391.022,23.768,0,18.789,0s-5.6.022-7.558.107A13.4,13.4,0,0,0,6.782.96,8.948,8.948,0,0,0,3.529,3.081,9.029,9.029,0,0,0,1.416,6.326a13.436,13.436,0,0,0-.852,4.449C.47,12.738.449,13.361.449,18.34s.022,5.6.107,7.558a13.4,13.4,0,0,0,.853,4.449,9.393,9.393,0,0,0,5.366,5.366,13.437,13.437,0,0,0,4.449.852c1.956.086,2.579.107,7.558.107s5.6-.021,7.558-.107a13.4,13.4,0,0,0,4.449-.852,9.38,9.38,0,0,0,5.366-5.366,13.445,13.445,0,0,0,.852-4.449c.086-1.956.107-2.579.107-7.558s-.007-5.6-.093-7.558Zm-3.3,14.973a10.052,10.052,0,0,1-.63,3.4,6.083,6.083,0,0,1-3.482,3.482,10.087,10.087,0,0,1-3.4.63c-1.934.086-2.514.107-7.408.107s-5.481-.021-7.408-.107a10.047,10.047,0,0,1-3.4-.63,5.643,5.643,0,0,1-2.106-1.368,5.7,5.7,0,0,1-1.368-2.106,10.089,10.089,0,0,1-.63-3.4c-.086-1.934-.107-2.515-.107-7.408s.021-5.481.107-7.408a10.047,10.047,0,0,1,.63-3.4A5.574,5.574,0,0,1,5.886,5.438,5.693,5.693,0,0,1,7.992,4.069a10.094,10.094,0,0,1,3.4-.63c1.934-.086,2.515-.107,7.408-.107s5.481.022,7.408.107a10.052,10.052,0,0,1,3.4.63A5.639,5.639,0,0,1,31.72,5.438a5.7,5.7,0,0,1,1.368,2.106,10.093,10.093,0,0,1,.63,3.4c.086,1.934.107,2.514.107,7.408s-.022,5.466-.107,7.4Zm0,0" transform="translate(0 0)"/>
    <path id="Path_232" data-name="Path 232" class="cls-1" d="M134.37,124.5a9.421,9.421,0,1,0,9.421,9.421A9.423,9.423,0,0,0,134.37,124.5Zm0,15.532a6.111,6.111,0,1,1,6.111-6.111A6.112,6.112,0,0,1,134.37,140.032Zm0,0" transform="translate(-115.581 -115.581)"/>
    <path id="Path_233" data-name="Path 233" class="cls-1" d="M366.849,90.8a2.2,2.2,0,1,1-2.2-2.2A2.2,2.2,0,0,1,366.849,90.8Zm0,0" transform="translate(-336.067 -82.254)"/>
  </g>
</svg>
